{
    "chars": [
        "IP2D_isDefaults",
        "IP3D_isDefaults",
        "JetFitter_isDefaults",
        "SV1_isDefaults",
        "SMT_isDefaults",
        "JetFitterSecondaryVertex_isDefaults",
        "rnnip_isDefaults",
        "softMuon_isDefaults"
    ],
    "jet_int_variables": [
        "GhostBHadronsFinalCount",
        "GhostCHadronsFinalCount",
        "HadronConeExclTruthLabelID",
        "HadronConeExclExtendedTruthLabelID",
        "jetPtRank"
    ],
    "floats": [
        "JetFitter_energyFraction",
        "JetFitter_mass",
        "JetFitter_significance3d",
        "JetFitter_deltaphi",
        "JetFitter_deltaeta",
        "JetFitter_massUncorr",
        "JetFitter_dRFlightDir",
        "SV1_masssvx",
        "SV1_efracsvx",
        "SV1_significance3d",
        "SV1_dstToMatLay",
        "SV1_deltaR",
        "SV1_Lxy",
        "SV1_L3d",
        "softMuon_pt",
        "softMuon_dR",
        "softMuon_eta",
        "softMuon_phi",
        "softMuon_qOverPratio",
        "softMuon_momentumBalanceSignificance",
        "softMuon_scatteringNeighbourSignificance",
        "softMuon_pTrel",
        "softMuon_ip3dD0",
        "softMuon_ip3dZ0",
        "softMuon_ip3dD0Significance",
        "softMuon_ip3dZ0Significance",
        "softMuon_ip3dD0Uncertainty",
        "softMuon_ip3dZ0Uncertainty",
        "JetFitter_deltaR",
        "JetFitterSecondaryVertex_displacement3d",
        "JetFitterSecondaryVertex_displacement2d",
        "SMT_mu_pt",
        "SMT_dR",
        "SMT_qOverPratio",
        "SMT_mombalsignif",
        "SMT_scatneighsignif",
        "SMT_pTrel",
        "SMT_mu_d0",
        "SMT_mu_z0",
        "SMT_ID_qOverP",
        "JetFitterSecondaryVertex_mass",
        "JetFitterSecondaryVertex_energy",
        "JetFitterSecondaryVertex_energyFraction",
        "JetFitterSecondaryVertex_minimumTrackRelativeEta",
        "JetFitterSecondaryVertex_maximumTrackRelativeEta",
        "JetFitterSecondaryVertex_averageTrackRelativeEta",
        "minimumTrackRelativeEta",
        "maximumTrackRelativeEta",
        "averageTrackRelativeEta"
    ],
    "doubles": [
        "pt_btagJes", "eta_btagJes", "absEta_btagJes",
        "MV2c10_discriminant",
        "IP2D_pu", "IP2D_pc", "IP2D_pb",
        "IP3D_pu", "IP3D_pc", "IP3D_pb",
        "IP2D_cu", "IP2D_bu", "IP2D_bc",
        "IP3D_cu", "IP3D_bu", "IP3D_bc",
        "rnnip_pu", "rnnip_pc", "rnnip_pb",
        "DL1_pu", "DL1_pc", "DL1_pb",
        "DL1r_pu", "DL1r_pc", "DL1r_pb",
        "DL1rmu_pu", "DL1rmu_pc", "DL1rmu_pb",
        "softMuon_pb", "softMuon_pc", "softMuon_pu"
    ],
    "jet_floats": [
        "GhostBHadronsFinalPt",
        "bTagJVT"
    ],
    "ints_as_float": [
        "JetFitter_nVTX",
        "JetFitter_nSingleTracks",
        "JetFitter_nTracksAtVtx",
        "JetFitter_N2Tpair",
        "SV1_N2Tpair",
        "SV1_NGTinSvx",
        "JetFitterSecondaryVertex_nTracks",
        "IP2D_nTrks",
        "IP3D_nTrks"
    ]
}
